36.44772579,51.10029687,51.59433353,84.17505408,-3.799202719,-0.838892534,52.630001
41.95406334,51.60616846,51.69704807,90.6655816,-3.821721367,-0.843886376,53.080002
43.01547088,59.07600097,51.74928576,93.95099006,-3.847859096,-0.849677758,53.169998
40.56640894,58.35462543,51.83676222,92.02899449,-3.868631705,-0.85423178,53.060001
53.19633772,59.89786141,52.12504767,91.52876521,-3.880732519,-0.85685319,54.209999
45.10009083,56.09947924,52.23514311,89.76425382,-3.879308689,-0.856460551,53.810001
46.474014,63.22432288,52.43623828,89.55046667,-3.875671001,-0.855646479,53.93
55.68844744,70.74152684,52.829524,89.92805397,-3.860341239,-0.852193441,54.860001
40.24973785,64.79157854,53.06309503,87.3608317,-3.855601184,-0.85121111,54.099998
41.75263068,58.98778307,53.26047639,83.40945335,-3.856353154,-0.851407752,54.220001
46.45688912,57.5382118,53.43814318,78.79582844,-3.858250378,-0.851832546,54.610001
54.35807251,63.70620946,53.66471434,86.95655876,-3.859535325,-0.852112472,55.389999
41.90096086,63.22562871,53.79890502,89.5349299,-3.864804368,-0.853299324,54.790001
43.02730465,57.20298824,53.9891908,89.11076342,-3.866866279,-0.853735041,54.880001
2.664511355,48.84917687,53.93514284,67.11542017,-3.875030976,-0.855574087,53.169998
31.3728055,50.78635103,54.19123816,66.09660931,-3.874268272,-0.855352166,54.84
45.22133322,50.81362009,54.47885708,73.14991391,-3.882141291,-0.857142635,56.18
45.74719347,56.9701482,54.6731908,93.56673544,-3.893510717,-0.859671959,56.240002
55.70171271,56.7788982,55.04471428,98.8135681,-3.90303534,-0.861763425,57.549999
49.86219592,66.40284042,55.20080938,92.42302707,-3.933494852,-0.868611808,57.169998
51.28359833,60.81990124,55.4328092,89.48838158,-3.959983738,-0.874433332,57.349998
38.30359682,53.53502624,55.54452336,80.57253123,-3.981771843,-0.879216729,56.599998
22.83413485,53.50307814,55.54157106,71.02926705,-4.00188216,-0.88364751,55.77
25.34728241,53.9694186,55.66761867,61.41782979,-4.010817467,-0.885554692,55.939999
29.55673437,53.8183935,55.81276153,58.89569143,-4.023820641,-0.88845122,56.23
32.11203758,53.40101056,55.93704719,63.25833271,-4.039499217,-0.89192779,56.41
39.21897373,59.72451781,56.07219024,70.14313962,-4.056474604,-0.895682836,56.950001
33.92155168,60.12336819,56.17257119,73.34696113,-4.071557144,-0.89900141,56.700001
36.89756654,68.43569356,56.31323772,76.38502693,-4.082284921,-0.901344544,56.91
33.84888504,62.77704816,56.52742819,72.56701224,-4.086276197,-0.90218675,56.779999
33.34375667,56.07294269,56.64485657,66.66658775,-4.098024608,-0.904827264,56.759998
23.55263598,47.64310883,56.63276174,51.44572219,-4.111098403,-0.907720244,56.400002
13.30104714,36.80254551,56.59599943,35.41381502,-4.126300009,-0.911088796,56.049999
-18.55740045,23.7970226,56.36847589,24.84550998,-4.149530947,-0.916264647,55.040001
0.231193672,31.02501886,56.3112852,26.75082583,-4.157931343,-0.918030714,55.599998
-4.686489689,30.92051217,56.18161867,30.16943844,-4.175100783,-0.921875359,55.439999
-8.658456436,30.70206738,56.09380934,34.95253969,-4.187797589,-0.924650777,55.32
-32.89787577,30.04998343,55.9752854,24.4771923,-4.19685354,-0.926629448,54.639999
-57.85006733,22.92796709,55.80814294,12.45673874,-4.201611463,-0.927655146,53.990002
58.28652655,39.90241341,56.589476,54.80182582,-4.176900361,-0.922026611,60.889999
30.66689531,32.0170919,56.54814273,65.96471827,-4.200111462,-0.927437888,58.5
20.33728402,30.40888085,56.53342812,71.08937151,-4.226215058,-0.933210403,57.669998
32.54035313,33.14126609,56.77614262,62.47671788,-4.231344809,-0.934219213,59.040001
21.443376,36.45835281,56.78666649,60.75418994,-4.241388858,-0.936468962,58.130001
31.46532296,41.6515295,57.02090431,68.15642458,-4.240598777,-0.936229884,59.259998
33.16788866,45.29200758,57.20366661,70.15828678,-4.237558282,-0.93554708,59.470001
33.67459359,48.04299131,57.4017139,76.67596834,-4.235815852,-0.935170338,59.529999
34.12277474,53.98029664,57.62380954,78.16574488,-4.23154759,-0.934212911,59.580002
33.088388,50.74127369,57.89552336,78.35195065,-4.22733572,-0.933283752,59.509998
33.50527843,52.21027283,58.14290444,78.44506052,-4.229782133,-0.93386305,59.549999
36.98987875,56.26986822,58.44133328,79.84170391,-4.229288871,-0.933735796,59.880001
26.74594419,57.15126206,58.64495239,78.81750931,-4.231017443,-0.934130999,59.290001
24.31516135,64.11743563,58.91547619,73.13758564,-4.226005936,-0.932984519,59.16
3.373173287,45.81473782,59.09685689,56.99138125,-4.218902372,-0.931404951,58.119999
18.25639402,60.38579132,59.0387143,47.61466579,-4.235874178,-0.935294015,58.970001
16.87609319,74.69524666,59.0584764,50.30611719,-4.245447587,-0.937360279,58.900002
20.06107414,72.80944698,59.15995257,61.99495001,-4.250670213,-0.938488974,59.09
27.02283818,71.5888085,59.22171428,64.64644351,-4.261426979,-0.940897076,59.529999
6.948349314,59.35453755,59.18438069,53.70364572,-4.276449199,-0.944237896,58.599998
33.782306,62.26095981,59.37952368,68.98141654,-4.285813474,-0.946271377,60.369999
46.0784396,66.03049834,59.60990464,79.75899541,-4.305423785,-0.950662155,61.68
45.30348277,68.58652775,59.7363334,93.78037292,-4.329441645,-0.955989115,61.630001
40.96360436,64.91531508,59.82857117,90.71549957,-4.355468257,-0.961746428,61.369999
31.61622784,61.89267434,59.87438062,82.45171329,-4.382754759,-0.967777841,60.849998
41.8029138,63.88122486,60.07752369,83.62718709,-4.407130146,-0.973142091,61.77
26.0535495,63.88325737,60.07585709,79.5130162,-4.445532913,-0.981703671,60.880001
-8.058787001,58.62983685,59.93561886,64.73554253,-4.446050785,-0.981592747,59.09
-23.04062657,56.78602975,59.83395233,36.89887142,-4.452898003,-0.983147741,58.360001
-5.687297156,57.29918884,59.9488096,23.17773956,-4.452283725,-0.982967038,59.110001
-18.9586897,50.00123324,59.87080933,19.01293342,-4.454911511,-0.983567488,58.459999
1.0674215,50.36899757,59.96757105,27.34625259,-4.454654371,-0.983493191,59.389999
-2.864441836,45.38612604,59.95947575,27.99348576,-4.454872636,-0.983544646,59.189999
-26.15314965,42.29124506,59.7917616,28.13950824,-4.459784525,-0.984656635,58.09
7.756744167,41.58712144,59.97752376,33.48213791,-4.446907929,-0.981708287,59.720001
24.76627525,42.52623198,60.10795232,48.99857654,-4.445014665,-0.98135777,61
28.52450785,41.53688571,60.11119041,73.13541107,-4.454938486,-0.983616516,61.34
42.48170528,49.6544679,60.29857144,87.989372,-4.45938492,-0.984564141,62.880001
48.74553551,55.5257732,60.51204749,94.96742511,-4.465040872,-0.985820887,63.779999
49.98068488,56.57966431,60.7187621,93.53708853,-4.475537276,-0.988166559,63.970001
56.8505522,62.02481032,61.01095237,95.70187889,-4.486845222,-0.990667142,65.139999
65.14760927,67.82650515,61.52800013,96.06831215,-4.497622207,-0.993043243,67.040001
69.43577011,77.67448603,62.19347572,99.20109416,-4.499767066,-0.993466048,68.339996
70.39629334,77.99011667,62.85395267,97.98412932,-4.504453528,-0.994517038,68.660004
63.07068252,76.62996329,63.3558092,94.20993089,-4.516258721,-0.997164856,67.989998
65.03060186,71.06095989,64.01109551,92.1389079,-4.516834492,-0.997224755,68.480003
61.91350648,69.87261547,64.53914311,90.09083953,-4.530675383,-1.000360427,68.220001
64.37240151,79.18436663,65.17147604,92.16666901,-4.529917069,-1.000104924,68.769997
54.50597003,72.54035194,65.73128604,90.33773805,-4.523097997,-0.998566081,68.010002
51.84957766,71.74189888,66.21914298,87.98827643,-4.52089761,-0.998108363,67.82
63.17637533,72.91510964,66.92133319,88.49205669,-4.515733338,-0.99695,69.919998
47.28441747,62.91205754,67.28047579,83.74758059,-4.53201986,-1.000672502,68.629997
37.06889671,57.28742014,67.53376179,76.26911034,-4.546856749,-1.003936263,67.860001
42.99061185,58.11875358,67.88499961,64.26710972,-4.563402785,-1.007599664,68.599998
45.23510988,58.20567966,68.211619,61.59036106,-4.593406341,-1.01430278,68.900002
45.38931915,57.89901093,68.44704723,60.31014925,-4.634415875,-1.023419524,68.919998
39.21037375,50.09751631,68.51009453,51.32308477,-4.681965083,-1.033954231,68.519997
31.22536158,43.48258426,68.45723798,34.85474072,-4.739151557,-1.046635573,68.040001
21.01367438,44.06537416,68.34285684,21.91436344,-4.792619042,-1.058416701,67.470001
28.98364355,44.72871548,68.38933282,20.65041437,-4.838411116,-1.068482074,68.059998
10.70275228,45.4205566,68.23266638,16.31540873,-4.900105555,-1.082197737,67.080002
12.6117487,39.56057236,68.17676168,17.41746571,-4.945798413,-1.092189034,67.190002
27.45286296,47.18838903,68.2096186,18.97327919,-4.983167466,-1.100392918,68.169998
31.88735007,54.87232532,68.26618964,29.68751814,-5.01881351,-1.108253918,68.519997
14.91433397,44.47556113,68.19085612,35.27294203,-5.050852391,-1.115306437,67.629997
27.53657534,53.60363486,68.16376096,42.20244953,-5.079051189,-1.121510098,68.489998
2.159960616,51.83327465,67.97509449,36.60571761,-5.110812275,-1.128543846,67.139999
-36.30264947,42.93574514,67.67718947,27.83879816,-5.133710701,-1.13354659,65.239998
-21.34778249,43.83244673,67.54518947,16.63339543,-5.136777351,-1.134108291,65.809998
-61.23360375,38.1542942,67.09923737,8.843948488,-5.145557125,-1.136083394,63.900002
-41.34893474,36.62604887,66.87247531,13.35437645,-5.139619807,-1.134684932,64.529999
-31.64871291,41.76619442,66.67214184,16.05592962,-5.137367034,-1.134211596,64.879997
-11.44871635,46.41734798,66.59118934,27.81640164,-5.128216222,-1.132150034,65.739998
-7.529841972,50.56994554,66.50942752,34.30690324,-5.121626131,-1.130711255,65.93
-16.57959649,50.82818963,66.3175709,37.08857261,-5.117737633,-1.12986823,65.480003
-82.20239979,48.35664209,65.81452308,24.89981514,-5.124577325,-1.131441041,62.450001
-108.5581495,41.97024669,65.37042764,12.0082341,-5.121773371,-1.130763536,61.32
-129.9082363,28.7294177,64.83304695,5.02627513,-5.10957694,-1.128017079,60.470001
-68.67701783,38.48095658,64.51471373,11.59058762,-5.095618615,-1.124926431,61.82
-25.20977617,39.06434449,64.37371378,24.21460375,-5.081749155,-1.121865104,63.459999
-58.74453638,39.237427,63.79966662,29.47997755,-5.085302714,-1.122752212,61.490002
-76.89344006,39.4834795,63.31790464,26.89626517,-5.074768185,-1.12034073,60.5
-50.60655386,38.37299879,63.14314272,20.67218518,-5.046042001,-1.113893767,61.389999
-33.37149245,44.17907845,62.965524,24.86617513,-5.023752316,-1.109013358,62.110001
-15.08883615,50.70861971,62.97871442,38.02187396,-4.994985257,-1.102622969,63.040001
0.642138841,50.44389202,63.01980978,51.39722867,-4.97284755,-1.097775499,64.040001
4.298351125,49.51732953,63.00247696,62.32538727,-4.95325865,-1.093464614,64.300003
6.852157681,49.81103117,62.93733441,69.51102922,-4.943699902,-1.091412921,64.480003
5.400031198,49.64127713,62.83557216,74.25900779,-4.935776499,-1.089671662,64.389999
-14.92880132,52.01777627,62.61209599,73.66073484,-4.925037228,-1.087283861,63.220001
-45.05455202,53.55710829,62.44509599,62.19145012,-4.899173362,-1.081485059,61.610001
-69.43724649,55.17601038,62.30171523,39.39208061,-4.86976028,-1.074972728,60.400002
-52.65303484,46.64501703,62.3653817,25.10851673,-4.822874195,-1.064518878,60.91
-31.27219327,43.8626297,62.41304823,25.65057764,-4.789021427,-1.057124353,61.689999
-11.85210256,51.77611724,62.42347693,39.21933596,-4.773517063,-1.053807218,62.59
-30.22501577,55.48147251,62.35423885,43.24660287,-4.755098825,-1.049720875,61.560001
-32.53024644,50.03710217,62.40385769,41.69765644,-4.737710729,-1.045888542,61.439999
-73.90549186,42.23608119,62.14028626,23.5079204,-4.729200808,-1.044061822,59.439999
-91.95141972,32.75287898,61.86700069,17.9989316,-4.714975026,-1.040886024,58.630001
-73.3438667,32.49805785,61.65400082,16.43257798,-4.693950038,-1.036205048,59.080002
-55.02505028,27.51833282,61.414953,24.84075792,-4.676656403,-1.032409983,59.59
-24.30500433,25.78351879,61.27138152,33.63056908,-4.660868697,-1.028932638,60.700001
-21.73509368,31.54874619,61.05204806,40.97663889,-4.668207595,-1.030688851,60.810001
-20.03488737,37.63163125,60.83976247,50.53118264,-4.681684576,-1.033696801,60.880001
-34.76695341,36.69325938,60.60423866,52.86077107,-4.697848861,-1.037280494,60.200001
-1.127166106,44.51883168,60.70895268,63.13726934,-4.688995304,-1.035178123,61.639999
8.413531019,50.90552398,60.86038133,70.53223229,-4.670638167,-1.031073235,62.200001
-0.565327794,45.00941553,60.87490494,78.99161053,-4.670771102,-1.03121283,61.709999
12.41967169,43.26735335,60.97747663,84.25509358,-4.674022675,-1.031946131,62.470001
22.08515307,47.88319485,61.06071492,87.83187515,-4.677557597,-1.032727825,63.150002
35.08107447,52.77932761,61.31247702,94.91265595,-4.670842118,-1.031184805,64.300003
43.43360075,59.82065705,61.61619116,96.67882075,-4.66034133,-1.028845773,65.25
37.36010226,66.46660091,61.92119069,95.39982665,-4.641910782,-1.024730557,64.839996
42.82645779,65.15273355,62.38695241,94.65647447,-4.613367508,-1.018370487,65.449997
28.57925569,66.71793441,62.65995264,89.30230548,-4.593225813,-1.013974638,64.540001
29.74688612,61.31292581,62.97971434,85.96924641,-4.570632575,-1.008970727,64.639999
19.92571628,52.87493341,63.15028524,77.68900602,-4.562673062,-1.007300008,64.089996
21.12380346,53.29663417,63.36399949,75.71880869,-4.5608667,-1.006935118,64.169998
37.4447829,65.38406853,63.7409997,79.73924277,-4.560758345,-1.006920288,65.470001
49.75594429,65.6960418,64.2592382,86.76553066,-4.555223813,-1.00566619,66.910004
49.90278802,64.20378697,64.58814273,93.24404281,-4.559667089,-1.006706775,66.93
50.13819505,64.57118115,64.88495206,92.83720721,-4.561684162,-1.007136229,66.959999
54.01010696,64.93247948,65.27661873,94.77013703,-4.565086929,-1.007896071,67.459999
38.6493141,58.6780329,65.46552323,91.30434053,-4.57936353,-1.011111838,66.559998
41.4018957,49.99661903,65.71128516,88.35902361,-4.601931391,-1.016141466,66.82
48.96396254,53.51373611,65.97395204,86.19891739,-4.63217583,-1.022862749,67.620003
47.55003799,64.93433583,66.10999958,89.78161068,-4.66897226,-1.031024039,67.540001
73.95663978,72.6030141,67.01580954,88.80561052,-4.675980968,-1.032395045,73.080002
72.65957295,69.07221614,67.47080919,85.84167862,-4.709911528,-1.040049412,72.949997
69.00647944,65.33619541,67.94609519,83.83926786,-4.739820633,-1.046624693,72.610001
69.94773298,70.58460342,68.47680933,83.20881836,-4.766739284,-1.052550913,72.889999
63.79198531,64.94105763,68.95357115,81.25943668,-4.798648791,-1.059625702,72.379997
64.06447391,60.74989918,69.46980985,79.37072018,-4.819930906,-1.064260987,72.440002
65.9468095,59.73553926,69.95595224,77.30493584,-4.842636877,-1.069284066,72.849998
53.91716664,50.83229557,70.21033309,73.8021447,-4.880724985,-1.077783422,72
56.26213017,54.57978935,70.57219036,72.90677182,-4.908530134,-1.083859272,72.360001
60.1875897,57.08455125,70.993143,73.538699,-4.931736464,-1.088957351,73.010002
56.38317107,56.21906135,71.30338128,76.54028597,-4.955468587,-1.094200684,72.760002
61.37737239,59.90252739,71.79519079,81.11776327,-4.964805097,-1.096177137,73.57
47.51059136,55.12480532,72.09438126,79.29622609,-4.985921389,-1.100910791,72.68
21.67066111,47.00187509,72.2022857,66.29664321,-5.009439678,-1.106115373,71.139999
27.245992,30.98957654,72.48247619,45.97152538,-5.027480941,-1.110065937,71.57
28.89166873,32.98945119,72.40633281,22.22215945,-5.072413906,-1.120145394,71.699997
35.63382921,39.67824318,72.40361919,38.54963671,-5.11800635,-1.130210895,72.260002
42.15199833,38.8987092,72.46461859,53.53262681,-5.161820278,-1.139873639,72.879997
31.61022377,39.10793191,72.38533328,58.87686594,-5.205655565,-1.149551964,72.290001
32.7573475,43.92486047,72.39176157,59.96377717,-5.235562294,-1.156072734,72.379997
12.59170606,38.39342589,72.25604724,46.46741848,-5.27051864,-1.163822286,71.389999
30.11920806,52.34115298,72.32033355,48.82250906,-5.296752745,-1.169562028,72.550003
19.00842297,45.06157808,72.27571415,45.01817935,-5.3250992,-1.175834165,71.959999
23.5961104,39.36599789,72.29095252,54.27518083,-5.355623011,-1.182585638,72.260002
19.0667873,40.54209522,72.21519049,50.85884526,-5.390305169,-1.190266888,72.040001
30.59349928,42.61112136,72.2719526,62.26045161,-5.414825789,-1.195620062,72.800003
26.91542389,49.14968758,72.20028611,69.02758508,-5.448423008,-1.20309268,72.620003
28.1623885,50.95554385,72.20723788,79.80025101,-5.445790487,-1.202296706,72.699997
18.14839042,57.38659315,72.24647585,75.25416915,-5.439069861,-1.20079459,72.269997
8.618123982,55.76010706,72.2391426,63.9949386,-5.435619844,-1.200052642,71.889999
-62.68559426,46.36772648,71.89890476,32.3059727,-5.440915465,-1.201272768,69.25
-71.70238499,40.1354917,71.67123824,13.4048144,-5.438879371,-1.200778717,68.940002
-77.02762855,39.96562293,71.40466645,7.780991433,-5.438483338,-1.200702124,68.769997
-65.90193968,43.19898062,71.21342864,10.41811915,-5.431270635,-1.199069287,68.970001
-91.08581847,42.79658412,70.90366725,7.454674278,-5.433558312,-1.19963137,68.230003
-105.7459489,34.97306855,70.65471499,6.062566185,-5.427063071,-1.198144126,67.830002
-68.68326519,40.0301957,70.43719071,6.650415293,-5.417710708,-1.196063917,68.389999
-40.51441594,40.62049377,70.29352431,14.55400235,-5.407430126,-1.193789124,68.970001
-46.12886416,40.67552029,70.06585759,20.1877993,-5.397949581,-1.191700862,68.790001
-9.636938768,39.52325947,69.99800044,28.40377347,-5.386983317,-1.189270862,69.790001
-2.491421249,38.10326663,69.84633392,34.74181338,-5.392302773,-1.190541405,70.050003
-1.941502187,47.76446559,69.68990495,42.2535446,-5.395701612,-1.191277928,70.07
20.68302443,47.37220843,69.65909534,51.36447872,-5.394456783,-1.190976126,71.059998
35.9112532,54.41141819,69.71619131,68.34204754,-5.389007924,-1.189749099,72.050003
14.12510093,55.00124249,69.58876219,80.70669394,-5.388231775,-1.189605893,71.019997
25.94086963,61.04597338,69.7930009,89.35696703,-5.369802772,-1.185432471,71.730003
30.42938106,68.60302477,70.00704831,87.91846146,-5.351860349,-1.181476813,72.040001
25.73391957,66.88675221,70.18014366,90.51300973,-5.341267092,-1.179181159,71.82
19.06834167,68.03587579,70.31790537,86.1412985,-5.325268275,-1.175615978,71.529999
19.46217598,69.16604098,70.52485804,81.05193782,-5.307469069,-1.171676563,71.550003
14.68759717,64.90400071,70.73114381,77.04229682,-5.287053197,-1.167154016,71.370003
25.77393241,64.33505958,70.98628679,78.70309288,-5.267139702,-1.162760892,71.900002
29.48830416,71.35849145,71.19433393,81.80421883,-5.247647249,-1.158459753,72.099998
35.2357739,71.53215253,71.44323878,87.05584493,-5.227923814,-1.154103804,72.43
35.74777338,72.24089237,71.61066715,85.54651941,-5.214033364,-1.151071461,72.459999
45.9861911,69.65044722,71.84919045,87.77200276,-5.200921894,-1.14818039,73.129997
49.34516359,69.31947348,72.07328577,89.49076468,-5.192448079,-1.146336754,73.389999
23.8887267,62.42187754,72.08819046,83.53071675,-5.208941327,-1.150124387,72.419998
21.34521744,65.32429865,72.09909544,69.33166508,-5.226956786,-1.154106888,72.330002
23.41559803,58.04134491,72.19219046,56.98787097,-5.240252443,-1.15701437,72.419998
-22.52582478,48.73905522,72.0429051,39.27269091,-5.262615523,-1.162005802,70.980003
-46.92022583,39.0599752,71.88261871,27.18837561,-5.285970302,-1.167166447,70.269997
-25.69612592,52.38975487,71.84800028,23.02280721,-5.304677802,-1.171269196,70.730003
-142.4924287,42.75079548,71.34114338,17.17706069,-5.336636535,-1.178403769,67.300003
-98.34741568,38.96430659,71.15938161,14.40142112,-5.344379796,-1.179968653,67.910004
-129.6517805,31.67820676,70.8158576,7.650315653,-5.359866325,-1.183437203,66.940002
-110.7027869,26.2302358,70.54347598,13.06978988,-5.365906035,-1.184713709,67.199997
-75.38487508,29.32128074,70.31880978,17.53616373,-5.370200433,-1.185653066,67.790001
-27.2569754,31.58345466,70.19690481,28.45525523,-5.373565522,-1.18639077,69.029999
-58.89619222,27.42377827,69.80857148,30.63754848,-5.384079417,-1.188754247,67.709999
-36.21007269,24.53804991,69.55971473,33.07657256,-5.382243662,-1.188275117,68.360001
-13.23375207,29.50623321,69.36300057,35.13752284,-5.386997246,-1.189365373,69.220001
-13.87211028,34.01959892,69.16090565,43.66001596,-5.388043249,-1.189573393,69.190002
-51.68384127,32.51131973,68.74652456,41.97653179,-5.39412183,-1.190945658,67.540001
-63.52982106,32.2204118,68.38042911,34.42359284,-5.395134533,-1.19113861,67.059998
-20.84758954,37.32350987,68.31642933,33.03990794,-5.382545644,-1.188279983,68.400002
-36.25458265,29.7597234,68.10333387,40.99642028,-5.376972221,-1.187092904,67.669998
-75.12088174,33.26387233,67.68590512,37.01348277,-5.378223799,-1.18740825,65.959999
-17.32197653,41.2165601,67.87361903,40.22581593,-5.342423012,-1.179284996,67.989998
-58.3530063,44.16567745,67.56790517,25.23123861,-5.329573807,-1.17658913,65.660004
-103.2990214,43.86574862,67.1726668,19.66640563,-5.308438912,-1.171870443,63.290001
-136.1806354,34.70968102,66.71595263,2.189387453,-5.282803592,-1.166185602,61.68
-153.7761149,26.63270109,66.23104794,1.478916856,-5.25111591,-1.159154657,60.880001
-93.91624381,24.64455327,65.90119065,14.47606561,-5.213632984,-1.150846019,62.189999
-71.65683708,33.93021347,65.64880997,26.69699469,-5.179450441,-1.14331954,62.860001
-31.48504876,37.07332803,65.52966658,42.58416877,-5.144997279,-1.135710862,64.519997
-28.37276059,38.24409006,65.26004768,50.70552908,-5.122218707,-1.130750617,64.68
-0.43694126,44.64712798,65.21419041,63.00940194,-5.100380208,-1.125932831,66.43
-19.19750888,45.92053099,64.96014287,66.08974696,-5.090378241,-1.123794192,65.040001
-5.793582087,44.78659962,64.95242837,70.81306893,-5.064234578,-1.117925326,65.919998
7.975737389,47.44877468,64.94423818,74.4031865,-5.063237726,-1.117855876,67.010002
8.211421576,51.7880817,64.90604755,82.95417375,-5.061213106,-1.117398814,67.029999
22.50475839,50.32339869,65.15095284,92.18110425,-5.050789659,-1.115048354,68.370003
16.93756077,55.64848113,65.1158099,93.0388425,-5.057480952,-1.116627726,67.93
23.51987023,62.49179217,65.34166679,95.88236982,-5.044875013,-1.113728264,68.57
36.57869181,70.86578791,65.87519094,96.13483945,-5.01091628,-1.10610827,70.120003
34.05439324,78.12666855,66.36966745,97.84027225,-4.986052791,-1.100675746,69.910004
42.53359227,94.34701575,67.08333377,98.46520652,-4.947583368,-1.092100877,71.07
44.51483247,94.39717016,67.67304851,96.54951475,-4.915299217,-1.085011799,71.370003
49.10262376,93.83417807,68.29719083,96.48931971,-4.884655188,-1.078254861,72.099998
42.89164328,81.77629681,68.69976232,93.07873221,-4.877017865,-1.07670392,71.599998
43.63231686,74.64470367,69.14147635,92.61571315,-4.869667085,-1.075079101,71.699997
43.63231686,80.67020827,69.46771426,90.23518323,-4.863532547,-1.073731935,71.699997
39.19254631,76.07697381,69.84133399,88.90433198,-4.856288878,-1.072125961,71.410004
42.10073029,76.92413927,70.22252444,88.27891777,-4.859699606,-1.072941885,71.720001
37.0329316,70.91637541,70.4740954,85.43154812,-4.859887339,-1.07296268,71.419998
10.65470805,63.28499313,70.55252431,75.15185898,-4.877949599,-1.077056238,69.970001
23.39332352,64.06846034,70.76623861,67.95364197,-4.903809921,-1.082808749,70.830002
23.21272616,64.39753692,70.94442894,58.5745972,-4.941223424,-1.091135743,70.82
15.82364326,58.12644526,71.03304826,53.71375839,-4.987688092,-1.101445681,70.440002
28.76624242,60.84828181,71.17019079,44.98267937,-5.02812463,-1.110336365,71.32
26.86200865,55.28661149,71.24414305,45.07893861,-5.069022654,-1.119369499,71.220001
36.80977277,51.36134323,71.3574287,61.98037483,-5.102081803,-1.126622022,72
46.58895036,50.20211283,71.52709558,77.69951489,-5.135467915,-1.13399614,72.980003
52.24440165,58.24776584,71.67490501,90.16883618,-5.164659985,-1.140416366,73.68
52.78149142,65.13056546,71.81300037,93.20143308,-5.202691717,-1.148865686,73.75
47.83318728,59.38532361,71.90257212,88.99375794,-5.237918297,-1.156625062,73.470001
42.31388623,59.33799109,71.973477,85.06293754,-5.266878198,-1.16298239,73.18
39.23946462,53.36396418,72.06304804,79.40254832,-5.293493702,-1.168845709,73.029999
25.33377806,52.31433952,72.06014356,70.99060054,-5.316100422,-1.173813543,72.400002
17.01412068,55.28525741,72.07414394,62.10697004,-5.337939299,-1.178631213,72.050003
4.726514808,46.08316837,72.13890557,50.00006768,-5.349748844,-1.181179572,71.57
-42.69079998,38.57205194,71.95538137,30.36282025,-5.362013131,-1.183891521,69.849998
-45.95656831,35.42243218,71.88066696,13.50929872,-5.366672234,-1.184875266,69.739998
50.80766908,48.73313061,72.67466658,39.22150723,-5.334622246,-1.177584369,76.019997
16.69483757,40.86218385,72.56828597,48.51775066,-5.351878558,-1.181690223,73.040001
7.818784897,34.39191499,72.5849525,52.32065577,-5.351850801,-1.181574442,72.32
24.4470071,37.7474024,72.82876203,43.7974552,-5.346898431,-1.180454993,74
31.47263533,44.09619986,73.01057123,51.60335987,-5.350984974,-1.181411128,74.889999
26.45533732,37.51767955,73.026809,60.59069581,-5.365044919,-1.184572552,74.449997
26.89807132,42.18963552,73.07680921,62.70040205,-5.378461548,-1.187529349,74.5
25.32075741,41.93619906,73.12457066,60.54849324,-5.389657195,-1.189988182,74.379997
28.89327284,43.87897944,73.24685632,61.77212708,-5.398930215,-1.192024497,74.739998
27.87794107,46.87649515,73.34338007,62.48941877,-5.417802028,-1.196247806,74.669998
19.44286148,47.3618982,73.4119035,61.43456565,-5.430996077,-1.199125836,74.129997
1.779777439,48.26633503,73.4006657,54.4303578,-5.444394478,-1.202086059,73.080002
-5.104419701,49.13113014,73.44347468,46.11811098,-5.453739333,-1.204125287,72.699997
-12.12790015,51.22188441,73.57190305,32.184407,-5.449773849,-1.203172065,72.339996
-19.69148025,35.75158132,73.68485624,21.51128048,-5.445524593,-1.202234319,71.980003
-52.50004545,41.71278289,73.24142751,9.502844556,-5.470615076,-1.207946502,70.529999
-33.73999473,49.22396934,73.16338003,14.42070705,-5.466079736,-1.206766167,71.110001
5.267273862,47.11479367,73.32980827,28.97528577,-5.449375386,-1.203011323,72.919998
-13.61590613,33.4409656,73.11895073,37.35012373,-5.454578567,-1.20429084,71.839996
-27.17290408,40.49074791,72.83414196,38.25875968,-5.462883681,-1.206139212,71.120003
-37.92025786,28.22673879,72.55733187,24.52950605,-5.469255526,-1.207534207,70.589996
-51.02276563,28.378374,72.23528427,17.65056965,-5.476520202,-1.209143667,69.989998
-41.13577923,32.39350472,72.00352283,17.14767144,-5.482180082,-1.210383654,70.290001
-5.526978499,35.27740915,71.92004709,28.19797609,-5.486662985,-1.211366712,71.730003
-10.08787474,39.90187228,71.70604673,38.60162668,-5.502268556,-1.21487776,71.489998
-8.982866541,39.68394141,71.54928529,48.69238719,-5.52341457,-1.219577229,71.540001
23.12848445,45.87298581,71.71261883,63.25180894,-5.53194236,-1.221384876,73.480003
29.75797619,52.93150035,71.83823758,79.24280519,-5.51163207,-1.216733006,74.059998
8.342100392,50.85561141,71.7687139,86.0089786,-5.515179663,-1.217661177,72.739998
-14.0222466,52.65346718,71.64509467,69.61862293,-5.519673322,-1.218654988,71.459999
-36.78979594,44.98775486,71.5413329,46.18689659,-5.506622121,-1.215670214,70.25
-6.948093676,44.73941294,71.67342794,39.42183384,-5.478659438,-1.2094116,71.639999
-32.65821792,43.9238328,71.39285631,31.24223824,-5.47570231,-1.208908214,70.129997
-12.60348272,42.51378964,71.41766643,36.53129825,-5.455008223,-1.204230978,71.110001
0.721528911,48.27755486,71.52504686,38.25330964,-5.43328803,-1.199432461,71.919998
6.034259142,54.79900243,71.65538045,51.29624391,-5.40984635,-1.194246974,72.279999
16.91851797,52.77155938,71.90647561,63.44479161,-5.38229199,-1.188139598,73.099998
8.307926448,46.40239332,72.00576154,67.16413548,-5.366012234,-1.184612384,72.540001
4.83057011,40.83371629,72.02790441,67.47509935,-5.360184853,-1.18338557,72.330002
11.53725946,46.87222905,72.13723799,65.36069676,-5.352318195,-1.181635176,72.760002
15.27088687,45.77905427,72.2460952,68.28358801,-5.34787616,-1.180674992,73.010002
34.12093927,46.59373951,72.42766576,80.53524686,-5.348758329,-1.180900555,74.589996
48.88578291,59.82838661,72.71647596,91.05033954,-5.360319803,-1.183515141,76.510002
52.56095643,66.3821798,73.03252316,98.27741644,-5.370060685,-1.185653352,77.129997
55.85831441,73.63139509,73.46352384,98.09869749,-5.364457884,-1.184326364,77.730003
55.85831441,72.85376115,73.92657164,97.58621437,-5.36245156,-1.183906984,77.730003
60.22238306,80.6392729,74.41290522,97.99566654,-5.367254319,-1.185006793,78.550003
54.2440152,88.79236444,74.87414302,96.67559776,-5.374383718,-1.186593462,78.099998
48.23508442,81.32579465,75.25085739,93.32503787,-5.388852373,-1.189830712,77.68
51.11261777,80.75546681,75.65942894,89.55290648,-5.401431724,-1.192595705,78.07
56.96789465,80.92312631,76.13652411,91.54927272,-5.405816231,-1.193515793,78.959999
57.82084523,87.02664447,76.51795261,91.20324602,-5.419486871,-1.196589936,79.099998
61.8249465,86.9833951,77.01604806,92.24868924,-5.427963045,-1.198429225,79.790001
49.68398883,80.8621582,77.37119046,87.6229062,-5.431938449,-1.199281269,78.989998
27.45676409,72.83771719,77.57552341,80.58793484,-5.436446805,-1.200280442,77.629997
38.07316148,72.55971824,77.9935239,72.34974804,-5.437763463,-1.20055224,78.620003
20.80129702,61.63770474,78.10033386,56.99576548,-5.463586072,-1.206398117,77.550003
25.64680517,61.70981235,78.21538114,47.77267853,-5.497624192,-1.213957534,77.93
-8.069895515,53.53998075,78.0089054,20.25427097,-5.537387667,-1.222769004,76.010002
-8.069895515,47.63517574,77.90242915,11.90669387,-5.578040081,-1.231748578,76.010002
15.55325691,47.69524597,77.98128623,15.27679941,-5.60707025,-1.238089294,77.400002
18.57767372,49.05772448,77.93942916,28.7879106,-5.641876224,-1.245809563,77.620003
27.57475706,55.88256357,78.00438171,45.52671647,-5.67061591,-1.252118018,78.330002
40.72630591,61.81699964,78.22195353,61.83263662,-5.690742502,-1.25651182,79.660004
-0.5725593,44.76788227,77.95104835,59.2968199,-5.735227046,-1.266477815,76.889999
